0.262593, 0.929528, 0.203031, 0.206548
0.685244, 0.995747, 0.285614, 0.727812
0.081886, 0.54505, 0.321866, 0.915013
0.862153, 0.892476, 0.674738, 0.540558
0.151919, 0.738175, 0.892942, 0.792255
0.665382, 0.445787, 0.350169, 0.81395
0.150766, 0.199873, 0.616637, 0.842538
0.312383, 0.537825, 0.426074, 0.683805
0.477694, 0.571057, 0.617538, 0.387954
0.304488, 0.179027, 0.555494, 0.101787
0.946069, 0.650877, 0.868689, 0.765698
0.683889, 0.241948, 0.807271, 0.382441
0.420543, 0.428161, 0.425341, 0.0765952
0.63937, 0.166139, 0.351235, 0.331647
0.189111, 0.40087, 0.696866, 0.407354
0.425339, 0.328684, 0.547306, 0.5002
0.678361, 0.78636, 0.280239, 0.638386
0.778585, 0.952229, 0.798158, 0.534332
0.22801, 0.216794, 0.166725, 0.0397846
0.771067, 0.264156, 0.195767, 0.356883
0.421148, 0.931446, 0.299653, 0.681744
0.533908, 0.114477, 0.321319, 0.94983
0.59634, 0.205151, 0.23571, 0.75569
0.815474, 0.706837, 0.941296, 0.738024
0.361131, 0.326667, 0.722791, 0.926569
0.337484, 0.894255, 0.52326, 0.190815
0.135087, 0.986521, 0.352059, 0.958948
0.335, 0.964917, 0.342418, 0.244056
0.432948, 0.652848, 0.553772, 0.338512
0.320031, 0.827203, 0.254952, 0.532172
0.997716, 0.0961269, 0.769715, 0.406938
0.109798, 0.13098, 0.864965, 0.800214
0.2053, 0.166662, 0.477513, 0.540605
0.0920485, 0.846609, 0.299794, 0.961613
0.894476, 0.158916, 0.614923, 0.00668949
0.985345, 0.951879, 0.951839, 0.924268
0.125631, 0.334079, 0.345338, 0.103084
0.261698, 0.695012, 0.735471, 0.688971
0.262312, 0.151678, 0.404376, 0.815661
0.493079, 0.815003, 0.917663, 0.589807
0.897903, 0.394786, 0.333603, 0.0106532
0.29254, 0.978601, 0.223505, 0.105333
0.0994137, 0.443231, 0.477202, 0.92552
0.386334, 0.0284698, 0.0476688, 0.497494
0.0666246, 0.990186, 0.0689695, 0.999539
0.77851, 0.798983, 0.366706, 0.709837
0.130562, 0.691809, 0.828504, 0.133463
0.549031, 0.612504, 0.454008, 0.8668
0.412972, 0.418144, 0.0295127, 0.920795
0.905933, 0.76757, 0.67614, 0.957019
0.741291, 0.95145, 0.362749, 0.396479
0.647775, 0.00201011, 0.446523, 0.368218
0.535167, 0.285582, 0.135239, 0.802187
0.630771, 0.553874, 0.644512, 0.768198
0.901629, 0.698685, 0.624657, 0.94637
0.876863, 0.788845, 0.550494, 0.734748
0.878481, 0.88755, 0.75434, 0.622866
0.397112, 0.838859, 0.308367, 0.44525
0.972425, 0.249032, 0.144401, 0.0793324
0.686219, 0.270324, 0.576866, 0.526096
0.111941, 0.786545, 0.784176, 0.711338
0.776264, 0.427286, 0.593841, 0.419378
0.107888, 0.915755, 0.489976, 0.522458
0.69687, 0.39806, 0.31643, 0.602596
0.268103, 0.0360931, 0.568008, 0.690274
0.436424, 0.907477, 0.884393, 0.772324
0.953034, 0.540588, 0.063476, 0.26657
0.973091, 0.710293, 0.806551, 0.715019
0.346448, 0.482656, 0.0327264, 0.613181
0.329151, 0.912088, 0.249472, 0.00955658
0.605257, 0.195952, 0.977481, 0.330547
0.13552, 0.296838, 0.77594, 0.0560253
0.203093, 0.481177, 0.0488461, 0.0324683
0.994598, 0.00165845, 0.00623283, 0.897689
0.551704, 0.278506, 0.0241134, 0.224238
0.448517, 0.489253, 0.0876475, 0.763163
0.110482, 0.574011, 0.330518, 0.695893
0.421196, 0.123586, 0.287096, 0.666025
0.883016, 0.34634, 0.619764, 0.437299
0.222255, 0.748503, 0.783181, 0.985807
0.591694, 0.332526, 0.0152214, 0.980703
0.0177428, 0.872137, 0.0920949, 0.275078
0.897956, 0.661316, 0.724307, 0.26974
0.876792, 0.897589, 0.124034, 0.0170432
0.54758, 0.802304, 0.61514, 0.12277
0.872707, 0.856867, 0.804987, 0.0819951
0.412672, 0.912233, 0.974702, 0.648714
0.898026, 0.483051, 0.213431, 0.775768
0.216094, 0.708104, 0.0897685, 0.796732
0.413941, 0.0380621, 0.602319, 0.022984
0.394645, 0.0754885, 0.610588, 0.382975
0.835701, 0.755437, 0.714325, 0.89062
0.818925, 0.891289, 0.842244, 0.286701
0.179655, 0.64756, 0.928863, 0.907851
0.375098, 0.393748, 0.387193, 0.787866
0.626151, 0.981024, 0.644086, 0.758046
0.819362, 0.522239, 0.0243328, 0.659917
0.51303, 0.72215, 0.39062, 0.532854
0.0998488, 0.681461, 0.50512, 0.249832
0.515266, 0.487211, 0.625415, 0.70904
