d,D,FF,TS
16,16  , 11.82  , 44.01 
16,32  , 8.14 , 34.32
16,64  , 6.74  , 28.57
16,128 , 4.68  , 22.02 
16,256 ,  3.08 , 12.98 
16,512 ,  2.15 , 7.83 
16,1024 , 1.56 , 4.95
16,2048 , 1.083 , 2.74 
16,4096, 0.73 , 2.04
16,8192 , 0.51 , 1.73 
