transform, dimensions, features,n, repeats, avg, min(microseconds), max(microseconds)
FastFood features, 16, 16, 1000, 10, 2956.11,2619,4225
TS features, 16, 16, 1000, 10, 2780.67,2732,2946
FastFood features, 16, 32, 1000, 10, 5003,4981,5027
TS features, 16, 32, 1000, 10, 3359.78,3335,3378
FastFood features, 16, 64, 1000, 10, 9267.11,9235,9350
TS features, 16, 64, 1000, 10, 4270.22,4198,4304
FastFood features, 16, 128, 1000, 10, 17971,17955,17993
TS features, 16, 128, 1000, 10, 6943.33,6904,6963
FastFood features, 16, 256, 1000, 10, 34515,34464,34614
TS features, 16, 256, 1000, 10, 10898.1,10850,10958
FastFood features, 16, 512, 1000, 10, 70815.4,70446,71202
TS features, 16, 512, 1000, 10, 20574.1,20527,20660
FastFood features, 16, 1024, 1000, 10, 139172,138967,139470
TS features, 16, 1024, 1000, 10, 40794,40735,40843
FastFood features, 16, 2048, 1000, 10, 278396,277661,279522
TS features, 16, 2048, 1000, 10, 87775.2,87476,88198
FastFood features, 16, 4096, 1000, 10, 564166,563074,566244
TS features, 16, 4096, 1000, 10, 193211,192756,196500
FastFood n, 16, 16, 1, 10, 23.2222,23,24
TS n, 16, 16, 1, 10, 137.222,137,138
FastFood n, 16, 16, 100001, 10, 260777,260408,261411
TS n, 16, 16, 100001, 10, 278314,276911,279174
FastFood n, 16, 16, 200001, 10, 543908,543663,544261
TS n, 16, 16, 200001, 10, 581456,580038,582765
FastFood n, 16, 16, 300001, 10, 813365,812610,814187
TS n, 16, 16, 300001, 10, 871220,870169,872520
FastFood n, 16, 16, 400001, 10, 1.08423e+06,1.08302e+06,1.08538e+06
TS n, 16, 16, 400001, 10, 1.14893e+06,1.1465e+06,1.15051e+06
FastFood n, 16, 16, 500001, 10, 1.37864e+06,1.37771e+06,1.37946e+06
TS n, 16, 16, 500001, 10, 1.44613e+06,1.44262e+06,1.44823e+06
FastFood n, 16, 16, 600001, 10, 1.64407e+06,1.642e+06,1.64701e+06
TS n, 16, 16, 600001, 10, 1.72589e+06,1.72411e+06,1.7269e+06
FastFood n, 16, 16, 700001, 10, 1.92156e+06,1.92046e+06,1.92366e+06
TS n, 16, 16, 700001, 10, 2.01212e+06,2.01051e+06,2.0144e+06
FastFood n, 16, 16, 800001, 10, 2.17989e+06,2.17709e+06,2.18909e+06
TS n, 16, 16, 800001, 10, 2.33018e+06,2.31099e+06,2.39149e+06
FastFood n, 16, 16, 900001, 10, 2.47918e+06,2.47786e+06,2.48235e+06
TS n, 16, 16, 900001, 10, 2.58218e+06,2.57975e+06,2.5848e+06
FastFood n, 16, 16, 1000001, 10, 2.71535e+06,2.71314e+06,2.71679e+06
TS n, 16, 16, 1000001, 10, 2.87483e+06,2.87271e+06,2.87638e+06
FastFood input d, 16, 4096, 1000, 10, 573047,572194,574105
TS input d, 16, 4096, 1000, 10, 190473,190440,190511
FastFood input d, 32, 4096, 1000, 10, 525414,525179,525618
TS input d, 32, 4096, 1000, 10, 195772,195667,195862
FastFood input d, 64, 4096, 1000, 10, 510362,510184,510563
TS input d, 64, 4096, 1000, 10, 202325,202156,202576
FastFood input d, 128, 4096, 1000, 10, 508799,508655,509166
TS input d, 128, 4096, 1000, 10, 215846,215783,215946
FastFood input d, 256, 4096, 1000, 10, 509373,509274,509455
TS input d, 256, 4096, 1000, 10, 242975,242938,243054
FastFood input d, 512, 4096, 1000, 10, 517189,517090,517303
TS input d, 512, 4096, 1000, 10, 306580,306492,306641
FastFood input d, 1024, 4096, 1000, 10, 525981,525853,526215
TS input d, 1024, 4096, 1000, 10, 433755,433633,433969
FastFood input d, 2048, 4096, 1000, 10, 540871,540737,541216
TS input d, 2048, 4096, 1000, 10, 692571,692138,693423
FastFood input d, 4096, 4096, 1000, 10, 553240,553072,553384
TS input d, 4096, 4096, 1000, 10, 1.29703e+06,1.29594e+06,1.29864e+06
